{
  "dependencies": {
    "@babel/core": "^7.5.5",
    "@webpack-cli/init": "^0.2.2",
    "lerna": "^3.16.4",
    "react": "^16.8.6",
    "react-art": "^16.8.6",
    "react-dom": "^16.8.6",
    "react-native": "^0.60.4",
    "react-native-web": "^0.11.5",
    "react-primitives": "^0.8.0",
    "react-scripts": "3.0.1",
    "react-select": "^3.0.4",
    "react-sketch": "^0.5.1",
    "react_rust_wasm": "file:./pkg"
  }
}
